<?xml version="1.0" encoding="UTF-8" standalone="no"?>
<svg
   xmlns:dc="http://purl.org/dc/elements/1.1/"
   xmlns:cc="http://creativecommons.org/ns#"
   xmlns:rdf="http://www.w3.org/1999/02/22-rdf-syntax-ns#"
   xmlns:svg="http://www.w3.org/2000/svg"
   xmlns="http://www.w3.org/2000/svg"
   xmlns:sodipodi="http://sodipodi.sourceforge.net/DTD/sodipodi-0.dtd"
   xmlns:inkscape="http://www.inkscape.org/namespaces/inkscape"
   width="16"
   height="16"
   version="1.1"
   viewBox="0 0 16 16"
   id="svg5969"
   inkscape:version="0.91 r13725"
   sodipodi:docname="icon_skin_proxy.svg">
  <metadata
     id="metadata5979">
    <rdf:RDF>
      <cc:Work
         rdf:about="">
        <dc:format>image/svg+xml</dc:format>
        <dc:type
           rdf:resource="http://purl.org/dc/dcmitype/StillImage" />
        <dc:title />
      </cc:Work>
    </rdf:RDF>
  </metadata>
  <defs
     id="defs5977" />
  <sodipodi:namedview
     pagecolor="#ffffff"
     bordercolor="#666666"
     borderopacity="1"
     objecttolerance="10"
     gridtolerance="10"
     guidetolerance="10"
     inkscape:pageopacity="0"
     inkscape:pageshadow="2"
     inkscape:window-width="1051"
     inkscape:window-height="624"
     id="namedview5975"
     showgrid="false"
     inkscape:zoom="11.313708"
     inkscape:cx="7.9773973"
     inkscape:cy="10.3645"
     inkscape:window-x="2028"
     inkscape:window-y="50"
     inkscape:window-maximized="0"
     inkscape:current-layer="svg5969" />
  <g
     transform="matrix(0.03746668,0,0,0.03746668,-35.260984,26.434343)"
     id="g4431">
    <path
       style="color:#000000;font-style:normal;font-variant:normal;font-weight:normal;font-stretch:normal;font-size:medium;line-height:normal;font-family:sans-serif;text-indent:0;text-align:start;text-decoration:none;text-decoration-line:none;text-decoration-style:solid;text-decoration-color:#000000;letter-spacing:normal;word-spacing:normal;text-transform:none;direction:ltr;block-progression:tb;writing-mode:lr-tb;baseline-shift:baseline;text-anchor:start;white-space:normal;clip-rule:nonzero;display:inline;overflow:visible;visibility:visible;opacity:1;isolation:auto;mix-blend-mode:normal;color-interpolation:sRGB;color-interpolation-filters:linearRGB;solid-color:#000000;solid-opacity:1;fill:#ffab91;fill-opacity:0.99607843;fill-rule:nonzero;stroke:none;stroke-width:40;stroke-linecap:butt;stroke-linejoin:round;stroke-miterlimit:4;stroke-dasharray:none;stroke-dashoffset:0;stroke-opacity:1;color-rendering:auto;image-rendering:auto;shape-rendering:auto;text-rendering:auto;enable-background:accumulate"
       d="m 1085.4219,-692.19727 c -20.3781,0.0357 -41.1011,5.28057 -59.9453,16.16016 -57.42876,33.15686 -77.26197,107.1766 -44.10551,164.60547 a 20.002,20.002 0 0 0 0.40821,0.67773 c 0.82416,1.30537 2.43739,3.79984 2.91992,4.54688 2.46436,4.2898 3.77897,9.13965 3.79687,14.08789 -0.0211,4.98287 -1.35392,9.86452 -3.85351,14.17383 -0.4441,0.68283 -2.05849,3.16594 -2.80469,4.33398 a 20.002,20.002 0 0 0 -0.4668,0.76758 c -33.15645,57.42888 -13.32325,131.44861 44.10551,164.60547 57.4289,33.15621 131.4488,13.32342 164.6054,-44.10547 a 20.002,20.002 0 0 0 0.3828,-0.69336 c 0.7263,-1.38132 2.0704,-4.00615 2.4766,-4.79883 2.4808,-4.27623 6.0213,-7.83941 10.2969,-10.33008 4.3328,-2.47889 9.2347,-3.76796 14.2207,-3.75586 0.825,0.0439 3.7625,0.20155 5.1426,0.26368 a 20.002,20.002 0 0 0 0.8984,0.0195 c 66.3133,-9e-5 120.4996,-54.18687 120.5,-120.5 -4e-4,-66.31313 -54.1872,-120.49796 -120.5,-120.49805 a 20.002,20.002 0 0 0 -0.791,0.0156 c -1.5505,0.0613 -4.4981,0.21122 -5.3906,0.25586 -4.9494,-0.01 -9.8112,-1.29769 -14.1075,-3.75781 -4.3059,-2.51092 -7.8695,-6.10969 -10.3515,-10.43164 -0.3723,-0.73249 -1.6968,-3.33729 -2.3457,-4.58789 a 20.002,20.002 0 0 0 -0.4317,-0.78907 c -22.2771,-38.58503 -62.9333,-60.33867 -104.6601,-60.26563 z m 0.07,40 c 27.7955,-0.0486 54.7934,14.2005 69.8301,40.0879 0.3017,0.59614 2.2324,4.37109 2.2324,4.37109 a 20.002,20.002 0 0 0 0.4141,0.77148 c 5.9957,10.57976 14.7015,19.37399 25.2207,25.47657 a 20.002,20.002 0 0 0 0.08,0.0469 c 10.4197,5.98111 22.2333,9.11713 34.2481,9.09179 a 20.002,20.002 0 0 0 0.916,-0.0234 c 0,0 4.8444,-0.22505 5.291,-0.25 44.5899,0.12135 80.2752,35.86664 80.2754,80.48633 -2e-4,44.60717 -35.6664,80.34499 -80.2383,80.48633 -0.6034,-0.0334 -4.9531,-0.25196 -4.9531,-0.25196 a 20.002,20.002 0 0 0 -0.8711,-0.0273 c -12.1629,-0.0975 -24.1315,3.04813 -34.6738,9.10547 a 20.002,20.002 0 0 0 -0.08,0.0469 c -10.388,6.03221 -19.012,14.69265 -24.9981,25.11133 a 20.002,20.002 0 0 0 -0.4394,0.80664 c 0,0 -2.2344,4.32382 -2.4297,4.71094 -22.401,38.55125 -71.1994,51.58028 -109.8398,29.27148 -38.6332,-22.30514 -51.74925,-71.06604 -29.5801,-109.73828 0.3369,-0.51572 2.6933,-4.1582 2.6933,-4.1582 a 20.002,20.002 0 0 0 0.4571,-0.74023 c 6.1645,-10.48241 9.4277,-22.42117 9.4531,-34.58203 a 20.002,20.002 0 0 0 0,-0.0918 c -0.03,-12.01397 -3.2211,-23.81144 -9.25,-34.20313 a 20.002,20.002 0 0 0 -0.4766,-0.78125 c 0,0 -2.6304,-4.10212 -2.8691,-4.4668 -22.18261,-38.67491 -9.0666,-87.44747 29.5723,-109.75585 12.7005,-7.33259 26.408,-10.77692 40.0156,-10.80079 z"
       id="path4422"
       inkscape:connector-curvature="0" />
    <path
       inkscape:connector-curvature="0"
       id="path4424"
       d="m 1072.8008,-590.08008 0,99.66602 0,99.66406 60.332,-34.83203 48.7383,84.41797 0,49.32226 60,0 0,-65.40039 -56.7773,-98.33984 60.332,-34.83203 -86.3125,-49.83399 -86.3125,-49.83203 z"
       style="opacity:1;fill:#00ebff;fill-opacity:1;stroke:none;stroke-width:60;stroke-linecap:round;stroke-linejoin:round;stroke-miterlimit:4;stroke-dasharray:none;stroke-dashoffset:0;stroke-opacity:1" />
  </g>
</svg>
