<?xml version="1.0" encoding="UTF-8" standalone="no"?>
<svg
   xmlns:dc="http://purl.org/dc/elements/1.1/"
   xmlns:cc="http://creativecommons.org/ns#"
   xmlns:rdf="http://www.w3.org/1999/02/22-rdf-syntax-ns#"
   xmlns:svg="http://www.w3.org/2000/svg"
   xmlns="http://www.w3.org/2000/svg"
   xmlns:sodipodi="http://sodipodi.sourceforge.net/DTD/sodipodi-0.dtd"
   xmlns:inkscape="http://www.inkscape.org/namespaces/inkscape"
   width="16"
   height="16"
   version="1.1"
   viewBox="0 0 16 16"
   id="svg5969"
   inkscape:version="0.91 r13725"
   sodipodi:docname="icon_skin_cache.svg">
  <metadata
     id="metadata5979">
    <rdf:RDF>
      <cc:Work
         rdf:about="">
        <dc:format>image/svg+xml</dc:format>
        <dc:type
           rdf:resource="http://purl.org/dc/dcmitype/StillImage" />
        <dc:title></dc:title>
      </cc:Work>
    </rdf:RDF>
  </metadata>
  <defs
     id="defs5977" />
  <sodipodi:namedview
     pagecolor="#ffffff"
     bordercolor="#666666"
     borderopacity="1"
     objecttolerance="10"
     gridtolerance="10"
     guidetolerance="10"
     inkscape:pageopacity="0"
     inkscape:pageshadow="2"
     inkscape:window-width="1019"
     inkscape:window-height="532"
     id="namedview5975"
     showgrid="false"
     inkscape:zoom="11.313708"
     inkscape:cx="6.6474719"
     inkscape:cy="6.4995008"
     inkscape:window-x="2134"
     inkscape:window-y="442"
     inkscape:window-maximized="0"
     inkscape:current-layer="svg5969" />
  <path
     style="color:#000000;font-style:normal;font-variant:normal;font-weight:normal;font-stretch:normal;font-size:medium;line-height:normal;font-family:sans-serif;text-indent:0;text-align:start;text-decoration:none;text-decoration-line:none;text-decoration-style:solid;text-decoration-color:#000000;letter-spacing:normal;word-spacing:normal;text-transform:none;direction:ltr;block-progression:tb;writing-mode:lr-tb;baseline-shift:baseline;text-anchor:start;white-space:normal;clip-rule:nonzero;display:inline;overflow:visible;visibility:visible;opacity:1;isolation:auto;mix-blend-mode:normal;color-interpolation:sRGB;color-interpolation-filters:linearRGB;solid-color:#000000;solid-opacity:1;fill:#ffab91;fill-opacity:0.99607843;fill-rule:nonzero;stroke:none;stroke-width:40;stroke-linecap:butt;stroke-linejoin:round;stroke-miterlimit:4;stroke-dasharray:none;stroke-dashoffset:0;stroke-opacity:1;color-rendering:auto;image-rendering:auto;shape-rendering:auto;text-rendering:auto;enable-background:accumulate"
     d="M 5.4040309,0.50000779 C 4.6399015,0.50134646 3.8628391,0.69801639 3.1562272,1.1059747 1.0027877,2.3492767 0.25909035,5.1248377 1.5023774,7.2782814 a 0.7500266,0.7500266 0 0 0 0.015307,0.025413 c 0.030904,0.048948 0.091396,0.1424845 0.10949,0.1704969 0.092407,0.1608569 0.1417022,0.3427149 0.1423734,0.5282617 C 1.7687564,8.189299 1.7187789,8.372349 1.6250503,8.5339377 1.6083976,8.5595422 1.5478619,8.652653 1.5198812,8.6964516 a 0.7500266,0.7500266 0 0 0 -0.017504,0.028782 c -1.24328668,2.153444 -0.4995897,4.929005 1.6538498,6.172307 2.1534448,1.243277 4.9290119,0.499596 6.1723042,-1.653849 a 0.7500266,0.7500266 0 0 0 0.014354,-0.026 c 0.027235,-0.0518 0.077635,-0.150221 0.092867,-0.179944 0.093024,-0.160349 0.2257842,-0.293959 0.3861088,-0.387353 0.1624695,-0.09295 0.3462792,-0.14129 0.5332422,-0.140836 0.03093,0.0016 0.141084,0.0076 0.192835,0.0099 a 0.7500266,0.7500266 0 0 0 0.03369,7.31e-4 c 2.486588,-3e-6 4.518443,-2.031876 4.518458,-4.518458 -1.5e-5,-2.4865818 -2.031889,-4.5183818 -4.518458,-4.5183852 a 0.7500266,0.7500266 0 0 0 -0.02966,5.861e-4 c -0.05814,0.0023 -0.168668,0.00792 -0.202135,0.00959 C 10.16424,3.4931588 9.9819342,3.4448548 9.8208334,3.3526061 9.6593725,3.258453 9.5257462,3.1235078 9.4326772,2.9614448 9.4187168,2.9339785 9.3690513,2.8363048 9.3447191,2.7894101 A 0.7500266,0.7500266 0 0 0 9.3285314,2.7598221 C 8.4931941,1.3129767 6.968685,0.49726784 5.4040309,0.50000667 Z m 0.00262,1.49990321 c 1.0422639,-0.00182 2.0546199,0.5324842 2.6184597,1.503199 0.011313,0.022354 0.08371,0.1639055 0.08371,0.1639055 a 0.7500266,0.7500266 0 0 0 0.015528,0.028929 C 8.3491771,4.0926596 8.6756235,4.422422 9.0700681,4.6512537 a 0.7500266,0.7500266 0 0 0 0.003,0.00176 c 0.3907135,0.2242773 0.8336949,0.3418705 1.2842211,0.3409204 a 0.7500266,0.7500266 0 0 0 0.03435,-8.789e-4 c 0,0 0.181653,-0.00844 0.198399,-0.00937 1.672014,0.00455 3.010126,1.3449121 3.010133,3.0180425 -7e-6,1.6726609 -1.337403,3.0127422 -3.008742,3.0180422 -0.02263,-0.0013 -0.185729,-0.0094 -0.185729,-0.0094 a 0.7500266,0.7500266 0 0 0 -0.03266,-0.001 c -0.4560793,-0.0037 -0.9048729,0.114297 -1.3001836,0.341433 a 0.7500266,0.7500266 0 0 0 -0.003,0.0018 c -0.3895249,0.226193 -0.712904,0.550938 -0.9373683,0.941614 a 0.7500266,0.7500266 0 0 0 -0.016476,0.03025 c 0,0 -0.083785,0.162132 -0.091108,0.176649 C 7.1849147,13.946572 5.3550928,14.435129 3.9061713,13.598603 2.457518,12.762214 1.9656997,10.933799 2.7969884,9.4836834 2.8096232,9.4643452 2.8979829,9.3277609 2.8979829,9.3277609 a 0.7500266,0.7500266 0 0 0 0.017138,-0.027757 C 3.1462754,8.906939 3.2686375,8.4592646 3.2695899,8.0032614 a 0.7500266,0.7500266 0 0 0 0,-0.00344 C 3.268465,7.5493245 3.1488065,7.1069479 2.9227373,6.7172847 a 0.7500266,0.7500266 0 0 0 -0.01787,-0.029295 c 0,0 -0.098637,-0.1538199 -0.1075858,-0.1674941 C 1.9654875,5.0702799 2.4573076,3.241427 3.9061713,2.4049167 4.3824094,2.1299623 4.8964074,2.0008083 5.4066595,1.9999132 Z"
     id="path4341"
     inkscape:connector-curvature="0" />
</svg>
